module gitrob

go 1.14

require (
	github.com/elazarl/go-bindata-assetfs v1.0.0
	github.com/fatih/color v1.9.0
	github.com/fsnotify/fsnotify v1.4.9 // indirect
	github.com/gin-contrib/secure v0.0.1
	github.com/gin-contrib/static v0.0.0-20191128031702-f81c604d8ac2
	github.com/gin-gonic/gin v1.6.3
	github.com/go-playground/validator/v10 v10.3.0 // indirect
	github.com/golang/protobuf v1.4.2 // indirect
	github.com/google/go-github v17.0.0+incompatible
	github.com/google/go-querystring v1.0.0 // indirect
	github.com/json-iterator/go v1.1.10 // indirect
	github.com/mattn/go-colorable v0.1.7 // indirect
	github.com/mattn/go-sqlite3 v1.14.0
	github.com/mitchellh/go-homedir v1.1.0
	github.com/mitchellh/mapstructure v1.3.3 // indirect
	github.com/otiai10/copy v1.2.0
	github.com/pelletier/go-toml v1.8.0 // indirect
	github.com/sergi/go-diff v1.1.0 // indirect
	github.com/smartystreets/goconvey v1.6.4
	github.com/spf13/afero v1.3.2 // indirect
	github.com/spf13/cast v1.3.1 // indirect
	github.com/spf13/cobra v1.0.0
	github.com/spf13/jwalterweatherman v1.1.0 // indirect
	github.com/spf13/pflag v1.0.5 // indirect
	github.com/spf13/viper v1.7.0
	github.com/whilp/git-urls v0.0.0-20191001220047-6db9661140c0
	github.com/xanzy/go-gitlab v0.33.0
	golang.org/x/crypto v0.0.0-20200709230013-948cd5f35899 // indirect
	golang.org/x/net v0.0.0-20200707034311-ab3426394381 // indirect
	golang.org/x/oauth2 v0.0.0-20200107190931-bf48bf16ab8d
	golang.org/x/sync v0.0.0-20200625203802-6e8e738ad208
	golang.org/x/sys v0.0.0-20200722175500-76b94024e4b6 // indirect
	golang.org/x/text v0.3.3 // indirect
	google.golang.org/appengine v1.6.6 // indirect
	google.golang.org/protobuf v1.25.0 // indirect
	gopkg.in/ini.v1 v1.57.0 // indirect
	gopkg.in/src-d/go-git.v4 v4.13.1
	gopkg.in/yaml.v2 v2.3.0
)
